{
  "log": {
    "version": "1.2",
    "creator": {
      "name": "Chrome DevTools",
      "version": "120.0.6099.109"
    },
    "pages": [
      {
        "startedDateTime": "2024-01-15T10:30:00.000Z",
        "id": "page_1",
        "title": "API Testing Session",
        "pageTimings": {
          "onContentLoad": 1200,
          "onLoad": 1500
        }
      }
    ],
    "entries": [
      {
        "startedDateTime": "2024-01-15T10:30:01.123Z",
        "time": 245,
        "request": {
          "method": "GET",
          "url": "https://api.example.com/v1/users",
          "httpVersion": "HTTP/1.1",
          "headers": [
            {
              "name": "Accept",
              "value": "application/json"
            },
            {
              "name": "Authorization",
              "value": "Bearer eyJhbGciOiJIUzI1NiIsInR5cCI6IkpXVCJ9..."
            },
            {
              "name": "User-Agent",
              "value": "Mozilla/5.0 (Macintosh; Intel Mac OS X 10_15_7) AppleWebKit/537.36"
            },
            {
              "name": "Content-Type",
              "value": "application/json"
            }
          ],
          "queryString": [
            {
              "name": "page",
              "value": "1"
            },
            {
              "name": "limit",
              "value": "10"
            },
            {
              "name": "sort",
              "value": "created_at"
            }
          ],
          "cookies": [],
          "headersSize": 512,
          "bodySize": 0
        },
        "response": {
          "status": 200,
          "statusText": "OK",
          "httpVersion": "HTTP/1.1",
          "headers": [
            {
              "name": "Content-Type",
              "value": "application/json; charset=utf-8"
            },
            {
              "name": "Content-Length",
              "value": "1024"
            },
            {
              "name": "Cache-Control",
              "value": "no-cache"
            },
            {
              "name": "X-RateLimit-Limit",
              "value": "1000"
            },
            {
              "name": "X-RateLimit-Remaining",
              "value": "999"
            }
          ],
          "cookies": [],
          "content": {
            "size": 1024,
            "mimeType": "application/json",
            "text": "{\"users\":[{\"id\":1,\"name\":\"John Doe\",\"email\":\"john@example.com\",\"created_at\":\"2024-01-01T00:00:00Z\"},{\"id\":2,\"name\":\"Jane Smith\",\"email\":\"jane@example.com\",\"created_at\":\"2024-01-02T00:00:00Z\"}],\"pagination\":{\"page\":1,\"limit\":10,\"total\":25,\"pages\":3}}"
          },
          "redirectURL": "",
          "headersSize": 256,
          "bodySize": 1024
        },
        "cache": {},
        "timings": {
          "blocked": 1,
          "dns": 2,
          "connect": 15,
          "send": 1,
          "wait": 200,
          "receive": 26,
          "ssl": 12
        },
        "pageref": "page_1"
      },
      {
        "startedDateTime": "2024-01-15T10:30:02.456Z",
        "time": 189,
        "request": {
          "method": "POST",
          "url": "https://api.example.com/v1/users",
          "httpVersion": "HTTP/1.1",
          "headers": [
            {
              "name": "Accept",
              "value": "application/json"
            },
            {
              "name": "Authorization",
              "value": "Bearer eyJhbGciOiJIUzI1NiIsInR5cCI6IkpXVCJ9..."
            },
            {
              "name": "Content-Type",
              "value": "application/json"
            },
            {
              "name": "User-Agent",
              "value": "Mozilla/5.0 (Macintosh; Intel Mac OS X 10_15_7) AppleWebKit/537.36"
            }
          ],
          "queryString": [],
          "cookies": [],
          "headersSize": 456,
          "bodySize": 156,
          "postData": {
            "mimeType": "application/json",
            "text": "{\"name\":\"Alice Johnson\",\"email\":\"alice@example.com\",\"role\":\"admin\",\"preferences\":{\"theme\":\"dark\",\"notifications\":true}}"
          }
        },
        "response": {
          "status": 201,
          "statusText": "Created",
          "httpVersion": "HTTP/1.1",
          "headers": [
            {
              "name": "Content-Type",
              "value": "application/json; charset=utf-8"
            },
            {
              "name": "Content-Length",
              "value": "245"
            },
            {
              "name": "Location",
              "value": "https://api.example.com/v1/users/3"
            },
            {
              "name": "X-RateLimit-Limit",
              "value": "1000"
            },
            {
              "name": "X-RateLimit-Remaining",
              "value": "998"
            }
          ],
          "cookies": [],
          "content": {
            "size": 245,
            "mimeType": "application/json",
            "text": "{\"id\":3,\"name\":\"Alice Johnson\",\"email\":\"alice@example.com\",\"role\":\"admin\",\"preferences\":{\"theme\":\"dark\",\"notifications\":true},\"created_at\":\"2024-01-15T10:30:02Z\",\"updated_at\":\"2024-01-15T10:30:02Z\"}"
          },
          "redirectURL": "",
          "headersSize": 312,
          "bodySize": 245
        },
        "cache": {},
        "timings": {
          "blocked": 1,
          "dns": 0,
          "connect": 0,
          "send": 2,
          "wait": 165,
          "receive": 21,
          "ssl": 0
        },
        "pageref": "page_1"
      },
      {
        "startedDateTime": "2024-01-15T10:30:03.789Z",
        "time": 156,
        "request": {
          "method": "GET",
          "url": "https://api.example.com/v1/users/3",
          "httpVersion": "HTTP/1.1",
          "headers": [
            {
              "name": "Accept",
              "value": "application/json"
            },
            {
              "name": "Authorization",
              "value": "Bearer eyJhbGciOiJIUzI1NiIsInR5cCI6IkpXVCJ9..."
            },
            {
              "name": "User-Agent",
              "value": "Mozilla/5.0 (Macintosh; Intel Mac OS X 10_15_7) AppleWebKit/537.36"
            }
          ],
          "queryString": [],
          "cookies": [],
          "headersSize": 398,
          "bodySize": 0
        },
        "response": {
          "status": 200,
          "statusText": "OK",
          "httpVersion": "HTTP/1.1",
          "headers": [
            {
              "name": "Content-Type",
              "value": "application/json; charset=utf-8"
            },
            {
              "name": "Content-Length",
              "value": "245"
            },
            {
              "name": "ETag",
              "value": "\"abc123\""
            },
            {
              "name": "Last-Modified",
              "value": "Mon, 15 Jan 2024 10:30:02 GMT"
            },
            {
              "name": "X-RateLimit-Limit",
              "value": "1000"
            },
            {
              "name": "X-RateLimit-Remaining",
              "value": "997"
            }
          ],
          "cookies": [],
          "content": {
            "size": 245,
            "mimeType": "application/json",
            "text": "{\"id\":3,\"name\":\"Alice Johnson\",\"email\":\"alice@example.com\",\"role\":\"admin\",\"preferences\":{\"theme\":\"dark\",\"notifications\":true},\"created_at\":\"2024-01-15T10:30:02Z\",\"updated_at\":\"2024-01-15T10:30:02Z\"}"
          },
          "redirectURL": "",
          "headersSize": 356,
          "bodySize": 245
        },
        "cache": {},
        "timings": {
          "blocked": 1,
          "dns": 0,
          "connect": 0,
          "send": 1,
          "wait": 135,
          "receive": 19,
          "ssl": 0
        },
        "pageref": "page_1"
      },
      {
        "startedDateTime": "2024-01-15T10:30:04.012Z",
        "time": 198,
        "request": {
          "method": "PUT",
          "url": "https://api.example.com/v1/users/3",
          "httpVersion": "HTTP/1.1",
          "headers": [
            {
              "name": "Accept",
              "value": "application/json"
            },
            {
              "name": "Authorization",
              "value": "Bearer eyJhbGciOiJIUzI1NiIsInR5cCI6IkpXVCJ9..."
            },
            {
              "name": "Content-Type",
              "value": "application/json"
            },
            {
              "name": "If-Match",
              "value": "\"abc123\""
            },
            {
              "name": "User-Agent",
              "value": "Mozilla/5.0 (Macintosh; Intel Mac OS X 10_15_7) AppleWebKit/537.36"
            }
          ],
          "queryString": [],
          "cookies": [],
          "headersSize": 512,
          "bodySize": 98,
          "postData": {
            "mimeType": "application/json",
            "text": "{\"name\":\"Alice Johnson\",\"email\":\"alice.johnson@example.com\",\"preferences\":{\"theme\":\"light\"}}"
          }
        },
        "response": {
          "status": 200,
          "statusText": "OK",
          "httpVersion": "HTTP/1.1",
          "headers": [
            {
              "name": "Content-Type",
              "value": "application/json; charset=utf-8"
            },
            {
              "name": "Content-Length",
              "value": "251"
            },
            {
              "name": "ETag",
              "value": "\"def456\""
            },
            {
              "name": "Last-Modified",
              "value": "Mon, 15 Jan 2024 10:30:04 GMT"
            },
            {
              "name": "X-RateLimit-Limit",
              "value": "1000"
            },
            {
              "name": "X-RateLimit-Remaining",
              "value": "996"
            }
          ],
          "cookies": [],
          "content": {
            "size": 251,
            "mimeType": "application/json",
            "text": "{\"id\":3,\"name\":\"Alice Johnson\",\"email\":\"alice.johnson@example.com\",\"role\":\"admin\",\"preferences\":{\"theme\":\"light\",\"notifications\":true},\"created_at\":\"2024-01-15T10:30:02Z\",\"updated_at\":\"2024-01-15T10:30:04Z\"}"
          },
          "redirectURL": "",
          "headersSize": 378,
          "bodySize": 251
        },
        "cache": {},
        "timings": {
          "blocked": 1,
          "dns": 0,
          "connect": 0,
          "send": 2,
          "wait": 175,
          "receive": 20,
          "ssl": 0
        },
        "pageref": "page_1"
      },
      {
        "startedDateTime": "2024-01-15T10:30:05.234Z",
        "time": 123,
        "request": {
          "method": "GET",
          "url": "https://api.example.com/v1/products",
          "httpVersion": "HTTP/1.1",
          "headers": [
            {
              "name": "Accept",
              "value": "application/json"
            },
            {
              "name": "Authorization",
              "value": "Bearer eyJhbGciOiJIUzI1NiIsInR5cCI6IkpXVCJ9..."
            },
            {
              "name": "User-Agent",
              "value": "Mozilla/5.0 (Macintosh; Intel Mac OS X 10_15_7) AppleWebKit/537.36"
            }
          ],
          "queryString": [
            {
              "name": "category",
              "value": "electronics"
            },
            {
              "name": "price_min",
              "value": "100"
            },
            {
              "name": "price_max",
              "value": "1000"
            }
          ],
          "cookies": [],
          "headersSize": 398,
          "bodySize": 0
        },
        "response": {
          "status": 200,
          "statusText": "OK",
          "httpVersion": "HTTP/1.1",
          "headers": [
            {
              "name": "Content-Type",
              "value": "application/json; charset=utf-8"
            },
            {
              "name": "Content-Length",
              "value": "512"
            },
            {
              "name": "Cache-Control",
              "value": "public, max-age=300"
            },
            {
              "name": "X-RateLimit-Limit",
              "value": "1000"
            },
            {
              "name": "X-RateLimit-Remaining",
              "value": "995"
            }
          ],
          "cookies": [],
          "content": {
            "size": 512,
            "mimeType": "application/json",
            "text": "{\"products\":[{\"id\":101,\"name\":\"Laptop Pro\",\"category\":\"electronics\",\"price\":899.99,\"description\":\"High-performance laptop\",\"in_stock\":true},{\"id\":102,\"name\":\"Wireless Headphones\",\"category\":\"electronics\",\"price\":199.99,\"description\":\"Noise-cancelling headphones\",\"in_stock\":false}],\"filters\":{\"category\":\"electronics\",\"price_range\":{\"min\":100,\"max\":1000}},\"total\":2}"
          },
          "redirectURL": "",
          "headersSize": 298,
          "bodySize": 512
        },
        "cache": {},
        "timings": {
          "blocked": 1,
          "dns": 0,
          "connect": 0,
          "send": 1,
          "wait": 105,
          "receive": 16,
          "ssl": 0
        },
        "pageref": "page_1"
      },
      {
        "startedDateTime": "2024-01-15T10:30:06.567Z",
        "time": 89,
        "request": {
          "method": "DELETE",
          "url": "https://api.example.com/v1/users/2",
          "httpVersion": "HTTP/1.1",
          "headers": [
            {
              "name": "Accept",
              "value": "application/json"
            },
            {
              "name": "Authorization",
              "value": "Bearer eyJhbGciOiJIUzI1NiIsInR5cCI6IkpXVCJ9..."
            },
            {
              "name": "User-Agent",
              "value": "Mozilla/5.0 (Macintosh; Intel Mac OS X 10_15_7) AppleWebKit/537.36"
            }
          ],
          "queryString": [],
          "cookies": [],
          "headersSize": 398,
          "bodySize": 0
        },
        "response": {
          "status": 204,
          "statusText": "No Content",
          "httpVersion": "HTTP/1.1",
          "headers": [
            {
              "name": "X-RateLimit-Limit",
              "value": "1000"
            },
            {
              "name": "X-RateLimit-Remaining",
              "value": "994"
            }
          ],
          "cookies": [],
          "content": {
            "size": 0,
            "mimeType": "application/json",
            "text": ""
          },
          "redirectURL": "",
          "headersSize": 156,
          "bodySize": 0
        },
        "cache": {},
        "timings": {
          "blocked": 1,
          "dns": 0,
          "connect": 0,
          "send": 1,
          "wait": 75,
          "receive": 12,
          "ssl": 0
        },
        "pageref": "page_1"
      },
      {
        "startedDateTime": "2024-01-15T10:30:07.890Z",
        "time": 234,
        "request": {
          "method": "POST",
          "url": "https://api.example.com/v1/orders",
          "httpVersion": "HTTP/1.1",
          "headers": [
            {
              "name": "Accept",
              "value": "application/json"
            },
            {
              "name": "Authorization",
              "value": "Bearer eyJhbGciOiJIUzI1NiIsInR5cCI6IkpXVCJ9..."
            },
            {
              "name": "Content-Type",
              "value": "application/json"
            },
            {
              "name": "User-Agent",
              "value": "Mozilla/5.0 (Macintosh; Intel Mac OS X 10_15_7) AppleWebKit/537.36"
            }
          ],
          "queryString": [],
          "cookies": [],
          "headersSize": 456,
          "bodySize": 189,
          "postData": {
            "mimeType": "application/json",
            "text": "{\"user_id\":3,\"items\":[{\"product_id\":101,\"quantity\":1,\"price\":899.99},{\"product_id\":102,\"quantity\":2,\"price\":199.99}],\"shipping_address\":{\"street\":\"123 Main St\",\"city\":\"Anytown\",\"zip\":\"12345\"}}"
          }
        },
        "response": {
          "status": 201,
          "statusText": "Created",
          "httpVersion": "HTTP/1.1",
          "headers": [
            {
              "name": "Content-Type",
              "value": "application/json; charset=utf-8"
            },
            {
              "name": "Content-Length",
              "value": "345"
            },
            {
              "name": "Location",
              "value": "https://api.example.com/v1/orders/1001"
            },
            {
              "name": "X-RateLimit-Limit",
              "value": "1000"
            },
            {
              "name": "X-RateLimit-Remaining",
              "value": "993"
            }
          ],
          "cookies": [],
          "content": {
            "size": 345,
            "mimeType": "application/json",
            "text": "{\"id\":1001,\"user_id\":3,\"items\":[{\"product_id\":101,\"quantity\":1,\"price\":899.99,\"total\":899.99},{\"product_id\":102,\"quantity\":2,\"price\":199.99,\"total\":399.98}],\"subtotal\":1299.97,\"tax\":104.00,\"shipping\":15.99,\"total\":1419.96,\"status\":\"pending\",\"created_at\":\"2024-01-15T10:30:07Z\"}"
          },
          "redirectURL": "",
          "headersSize": 312,
          "bodySize": 345
        },
        "cache": {},
        "timings": {
          "blocked": 1,
          "dns": 0,
          "connect": 0,
          "send": 3,
          "wait": 210,
          "receive": 20,
          "ssl": 0
        },
        "pageref": "page_1"
      }
    ]
  }
}
